<svg width="56" height="15" viewBox="0 0 56 15" fill="none" xmlns="http://www.w3.org/2000/svg">
<path d="M55.7071 8.2071C56.0976 7.81658 56.0976 7.18341 55.7071 6.79289L49.3431 0.428928C48.9526 0.0384036 48.3195 0.0384037 47.9289 0.428928C47.5384 0.819452 47.5384 1.45262 47.9289 1.84314L53.5858 7.5L47.9289 13.1569C47.5384 13.5474 47.5384 14.1805 47.9289 14.5711C48.3195 14.9616 48.9526 14.9616 49.3431 14.5711L55.7071 8.2071ZM8.74228e-08 8.5L55 8.5L55 6.5L-8.74228e-08 6.5L8.74228e-08 8.5Z" fill="white"/>
</svg>
