<svg width="23" height="22" viewBox="0 0 23 22" fill="none" xmlns="http://www.w3.org/2000/svg">
<line x1="2.47644" y1="20.3072" x2="21.2836" y2="1.49998" stroke="white" stroke-width="2" stroke-linecap="square"/>
<line x1="1" y1="-1" x2="27.5974" y2="-1" transform="matrix(-0.707107 -0.707107 -0.707107 0.707107 20.698 21.7213)" stroke="white" stroke-width="2" stroke-linecap="square"/>
</svg>
