<svg width="108" height="148" fill="none" xmlns="http://www.w3.org/2000/svg">
<circle cx="54" cy="94" r="53.5" stroke="black"/>
<path d="M55 1C55 0.447715 54.5523 -2.41411e-08 54 0C53.4477 2.41411e-08 53 0.447715 53 1L55 1ZM54 104L59.7735 94L48.2265 94L54 104ZM53 1L53 95L55 95L55 1L53 1Z" fill="black"/>
</svg>
