<svg width="30" height="30" viewBox="0 0 30 30" fill="none" xmlns="http://www.w3.org/2000/svg">
<g clip-path="url(#clip0_5_740)">
<path d="M14.823 3.08561C18.7055 3.08561 19.1653 3.10264 20.6922 3.17076C22.1112 3.2332 22.8775 3.4716 23.3884 3.67027C24.0639 3.93137 24.552 4.24924 25.0572 4.75443C25.5681 5.26529 25.8803 5.74777 26.1414 6.42324C26.34 6.9341 26.5784 7.70607 26.6409 9.11945C26.709 10.652 26.726 11.1118 26.726 14.9887C26.726 18.8712 26.709 19.331 26.6409 20.8579C26.5784 22.277 26.34 23.0432 26.1414 23.5541C25.8803 24.2296 25.5624 24.7177 25.0572 25.2229C24.5463 25.7338 24.0639 26.046 23.3884 26.3071C22.8775 26.5057 22.1056 26.7441 20.6922 26.8066C19.1596 26.8747 18.6998 26.8917 14.823 26.8917C10.9404 26.8917 10.4806 26.8747 8.95374 26.8066C7.53468 26.7441 6.76839 26.5057 6.25753 26.3071C5.58206 26.046 5.0939 25.7281 4.58872 25.2229C4.07785 24.7121 3.76566 24.2296 3.50456 23.5541C3.30589 23.0432 3.06749 22.2713 3.00505 20.8579C2.93693 19.3253 2.9199 18.8655 2.9199 14.9887C2.9199 11.1061 2.93693 10.6464 3.00505 9.11945C3.06749 7.70039 3.30589 6.9341 3.50456 6.42324C3.76566 5.74777 4.08353 5.25961 4.58872 4.75443C5.09958 4.24357 5.58206 3.93137 6.25753 3.67027C6.76839 3.4716 7.54036 3.2332 8.95374 3.17076C10.4806 3.10264 10.9404 3.08561 14.823 3.08561ZM14.823 0.468872C10.878 0.468872 10.3841 0.485901 8.83454 0.554016C7.2906 0.62213 6.22915 0.871884 5.3096 1.22949C4.35031 1.60412 3.53861 2.09795 2.73259 2.90965C1.92089 3.71568 1.42706 4.52738 1.05242 5.48098C0.694821 6.40621 0.445067 7.46199 0.376953 9.00592C0.308838 10.5612 0.291809 11.055 0.291809 15C0.291809 18.945 0.308838 19.4388 0.376953 20.9884C0.445067 22.5324 0.694821 23.5938 1.05242 24.5134C1.42706 25.4727 1.92089 26.2844 2.73259 27.0904C3.53861 27.8964 4.35031 28.3959 5.30392 28.7649C6.22915 29.1225 7.28492 29.3722 8.82886 29.4404C10.3785 29.5085 10.8723 29.5255 14.8173 29.5255C18.7623 29.5255 19.2561 29.5085 20.8057 29.4404C22.3496 29.3722 23.4111 29.1225 24.3306 28.7649C25.2843 28.3959 26.096 27.8964 26.902 27.0904C27.708 26.2844 28.2075 25.4727 28.5765 24.5191C28.9341 23.5938 29.1838 22.5381 29.2519 20.9941C29.3201 19.4445 29.3371 18.9507 29.3371 15.0057C29.3371 11.0607 29.3201 10.5669 29.2519 9.01728C29.1838 7.47334 28.9341 6.41189 28.5765 5.49234C28.2189 4.52738 27.725 3.71568 26.9133 2.90965C26.1073 2.10363 25.2956 1.60412 24.342 1.23516C23.4168 0.877561 22.361 0.627807 20.8171 0.559692C19.2618 0.485901 18.7679 0.468872 14.823 0.468872Z" fill="#000100"/>
<path d="M14.8229 7.53577C10.702 7.53577 7.3587 10.8791 7.3587 15C7.3587 19.121 10.702 22.4643 14.8229 22.4643C18.9439 22.4643 22.2872 19.121 22.2872 15C22.2872 10.8791 18.9439 7.53577 14.8229 7.53577ZM14.8229 19.8418C12.1494 19.8418 9.98112 17.6735 9.98112 15C9.98112 12.3265 12.1494 10.1582 14.8229 10.1582C17.4964 10.1582 19.6648 12.3265 19.6648 15C19.6648 17.6735 17.4964 19.8418 14.8229 19.8418Z" fill="#000100"/>
<path d="M24.325 7.24065C24.325 8.20561 23.5416 8.98326 22.5824 8.98326C21.6174 8.98326 20.8398 8.19994 20.8398 7.24065C20.8398 6.27569 21.6231 5.49805 22.5824 5.49805C23.5416 5.49805 24.325 6.28137 24.325 7.24065Z" fill="#000100"/>
</g>
<defs>
<clipPath id="clip0_5_740">
<rect width="29.0623" height="29.0623" fill="white" transform="translate(0.291809 0.468872)"/>
</clipPath>
</defs>
</svg>
